Bootstrapping
…
## Sample means

How many observations are there in `boot_dist`? What does each observation 
represent?

--

```r
boot_dist
```

```
## Response: ppg (numeric)
## # A tibble: 15,000 × 2
##   replicate  stat
##       <int> <dbl>
## 1         1  81.0
## 2         2  63.2
## 3         3  81.2
## 4         4  76.1
## 5         5  81.3
## 6         6  84.6
## # … with 14,994 more rows
```
…
